{
  "autoescape": true,
  "strict_variables": true,
  "globals": {
    "layout": "templates/base/layout.twig",
    "macros": "templates/base/macros.twig",
    "icon_sprite": "assets/dist/main.svg"
  },
  "namespaces": {
    "templates": "./templates"
  }
}
