{
  "debug_mode": true,
  "global_vars": {
    "layout": "templates/base/layout.twig",
    "macros": "templates/base/macros.twig",
    "icon_sprite": "/assets/dist/main.svg"
  },
  "namespaces": {
    "templates": "./templates"
  }
}
